"Wavelength, nm","ENO3, M-1 cm-1","ENO2, M-1 cm-1",phi(NO2/OH),"p0sun, Einstein/(cm2)/s/nm",phi,"EP, M-1 cm-1","Aw, cm-1"
292.5,6.92,8.85,0.068,8.25E-17,7.00E-05,5.19E+03,-1
295,7.5,8.9222,0.068,1.64E-16,7.00E-05,4.56E+03,-1
297.5,7.87,8.98,0.068,3.24E-14,7.00E-05,3.95E+03,-1
300,7.9355,9.07599,0.0678,6.46E-14,7.00E-05,3.40E+03,-1
302.5,8,9.14,0.0674,8.41E-13,7.00E-05,2.92E+03,-1
305,7.7,9.29331,0.0668,1.61E-12,7.00E-05,2.55E+03,-1
307.5,7.2,9.44,0.066,4.04E-12,7.00E-05,2.31E+03,-1
310,6.7,9.66443,0.065,6.44E-12,7.00E-05,2.12E+03,-1
312.5,6,9.915,0.0635,1.21E-11,7.00E-05,2.03E+03,-1
315,5.2,10.2527,0.061,1.78E-11,7.00E-05,2.01E+03,-1
317.5,4.3,10.715,0.058,2.26E-11,7.00E-05,2.04E+03,-1
320,3.5,11.2871,0.054,2.74E-11,7.00E-05,2.12E+03,-1
322.5,2.8,11.99,0.051,3.31E-11,7.00E-05,2.23E+03,-1
325,2.1,12.78278,0.047,3.87E-11,7.00E-05,2.36E+03,-1
327.5,1.5,13.67,0.043,4.87E-11,7.00E-05,2.52E+03,-1
330,1,14.60306,0.0375,5.88E-11,7.00E-05,2.70E+03,-1
333.3,0.6,16.05,0.031,5.88E-11,7.00E-05,2.96E+03,-1
340,0,19.1156,0.026,6.63E-11,7.00E-05,3.52E+03,-1
350,0,22.59355,0.025,7.29E-11,7.00E-05,3.99E+03,-1
360,0,22.01905,0.025,7.75E-11,7.00E-05,4.52E+03,-1
370,0,16.61029,0.025,1.03E-10,7.00E-05,4.31E+03,-1
380,0,9.06147,0.025,1.14E-10,7.00E-05,3.60E+03,-1
390,0,3.41239,0.025,1.21E-10,7.00E-05,2.66E+03,-1
400,0,0.82399,0.025,1.81E-10,7.00E-05,1.79E+03,-1
410,0,0.17069,0.025,1.93E-10,7.00E-05,1.11E+03,-1
420,0,0.06963,0.025,2.06E-10,7.00E-05,6.69E+02,-1
430,0,0.05638,0.025,1.84E-10,7.00E-05,4.04E+02,-1
440,0,0.05405,0.025,2.28E-10,7.00E-05,2.60E+02,-1
450,0,0.05132,0.025,2.83E-10,7.00E-05,1.84E+02,-1
460,0,0,0,2.83E-10,7.00E-05,1.41E+02,-1
470,0,0,0,2.85E-10,7.00E-05,1.17E+02,-1
480,0,0,0,3.06E-10,7.00E-05,9.98E+01,-1
490,0,0,0,2.94E-10,7.00E-05,9.44E+01,-1
500,0,0,0,2.92E-10,7.00E-05,8.77E+01,-1
510,0,0,0,3.13E-10,7.00E-05,7.86E+01,-1
520,0,0,0,2.97E-10,7.00E-05,6.65E+01,-1
530,0,0,0,3.27E-10,7.00E-05,5.69E+01,-1
540,0,0,0,3.18E-10,7.00E-05,5.28E+01,-1
550,0,0,0,3.33E-10,7.00E-05,5.27E+01,-1
560,0,0,0,3.27E-10,7.00E-05,5.10E+01,-1
570,0,0,0,3.27E-10,7.00E-05,4.23E+01,-1
580,0,0,0,3.38E-10,7.00E-05,4.03E+01,-1
590,0,0,0,3.29E-10,7.00E-05,3.40E+01,-1
600,0,0,0,3.30E-10,7.00E-05,2.99E+01,-1
625,0,0,0,3.45E-10,7.00E-05,2.22E+01,-1
650,0,0,0,3.52E-10,7.00E-05,1.32E+01,-1
675,0,0,0,3.47E-10,7.00E-05,4.37E+00,-1
700,0,0,0,3.48E-10,7.00E-05,0,-1
725,0,0,0,3.21E-10,7.00E-05,0,-1
750,0,0,0,3.42E-10,7.00E-05,0,-1
775,0,0,0,3.21E-10,7.00E-05,0,-1
800,0,0,0,3.29E-10,7.00E-05,0,-1
